^C:\WORK\SOFTWARE\STRELAPROJECT\OLD_TESTES\SRCCVHISTOGRAMM\RELEASE
C:\WORK\SOFTWARE\STRELAPROJECT\OLD_TESTES\SRCCVHISTOGRAMM\RELEASE\CVSAMPLE.EXE
C:\WORK\SOFTWARE\STRELAPROJECT\OLD_TESTES\SRCCVHISTOGRAMM\RELEASE\CVSAMPLE.PDB
